Date,InBedMin,DeepSleepMin,LightSleepMin,SleepStart,SleepEnd,AwakeMin,DailyDistanceMeter,DailySteps,DailyBurnCalories,WalkDistance,WalkTimeMin,WalkBurnCalories,RunDistanceMeter,RunTimeMin,RunBurnCalories,WalkRunSeconds,DateUS,Activity,BedHour,BedMinute,AwakeHour,AwakeMinute,DateUnix,SleepStartUnix,SleepEndUnix,WalkStart,WalkEnd,RunEnd
"2017-04-12 ",0,0,0,"2017-04-12 00:00:00","2017-04-12 00:00:00",0,37,55,2,37,3,2,0,0,0,180,"Apr 12, 2017","Daily Activity",00,00,00,00,1491919200,1491919200,1491919200,1491948000,1491948180,1491948180
"2017-04-13 ",527,188,339,"2017-04-12 21:27:00","2017-04-13 06:14:00",0,3920,5636,142,3870,89,139,50,0,3,5340,"Apr 13, 2017","Daily Activity",21,27,06,14,1492005600,1491996420,1491996420,1492034400,1492039740,1492039740
"2017-04-14 ",336,92,244,"2017-04-14 01:42:00","2017-04-14 07:18:00",0,5908,8109,200,5908,99,200,0,0,0,5940,"Apr 14, 2017","Daily Activity",01,42,07,18,1492092000,1492098120,1492098120,1492120800,1492126740,1492126740
"2017-04-15 ",583,129,454,"2017-04-14 22:18:00","2017-04-15 08:01:00",0,4656,6595,157,4572,89,154,84,0,3,5340,"Apr 15, 2017","Daily Activity",22,18,08,01,1492178400,1492172280,1492172280,1492207200,1492212540,1492212540
"2017-04-16 ",478,136,342,"2017-04-15 23:09:00","2017-04-16 07:07:00",0,8312,10992,288,8201,135,284,111,0,4,8100,"Apr 16, 2017","Daily Activity",23,09,07,07,1492264800,1492261740,1492261740,1492293600,1492301700,1492301700
"2017-04-17 ",418,163,255,"2017-04-16 23:54:00","2017-04-17 06:52:00",0,8261,10884,310,7594,128,272,667,5,38,7980,"Apr 17, 2017","Daily Activity",23,54,06,52,1492351200,1492350840,1492350840,1492380000,1492387680,1492387980
"2017-04-18 ",498,147,351,"2017-04-17 22:54:00","2017-04-18 07:12:00",0,12212,16442,409,11807,189,387,405,3,22,11520,"Apr 18, 2017","Daily Activity",22,54,07,12,1492437600,1492433640,1492433640,1492466400,1492477740,1492477920
"2017-04-19 ",222,80,142,"2017-04-19 00:53:00","2017-04-19 04:35:00",0,2503,3678,91,2435,62,89,68,1,2,3780,"Apr 19, 2017","Daily Activity",00,53,04,35,1492524000,1492527180,1492527180,1492552800,1492556520,1492556580
"2017-04-20 ",424,169,255,"2017-04-19 23:46:00","2017-04-20 06:50:00",0,12086,16400,415,11656,188,390,430,3,25,11460,"Apr 20, 2017","Daily Activity",23,46,06,50,1492610400,1492609560,1492609560,1492639200,1492650480,1492650660
"2017-04-21 ",440,125,315,"2017-04-21 00:20:00","2017-04-21 07:40:00",0,4248,5877,148,4103,76,141,145,1,7,4620,"Apr 21, 2017","Daily Activity",00,20,07,40,1492696800,1492698000,1492698000,1492725600,1492730160,1492730220
"2017-04-22 ",431,152,279,"2017-04-21 23:44:00","2017-04-22 06:55:00",0,11699,15156,409,11172,160,380,527,3,29,9780,"Apr 22, 2017","Daily Activity",23,44,06,55,1492783200,1492782240,1492782240,1492812000,1492821600,1492821780
"2017-04-23 ",508,156,352,"2017-04-22 23:05:00","2017-04-23 07:33:00",0,3705,4843,151,3039,65,112,666,4,39,4140,"Apr 23, 2017","Daily Activity",23,05,07,33,1492869600,1492866300,1492866300,1492898400,1492902300,1492902540
"2017-04-24 ",490,165,325,"2017-04-23 23:16:00","2017-04-24 07:26:00",0,3338,4741,112,3338,67,111,0,0,1,4020,"Apr 24, 2017","Daily Activity",23,16,07,26,1492956000,1492953360,1492953360,1492984800,1492988820,1492988820
"2017-04-25 ",477,168,309,"2017-04-24 22:26:00","2017-04-25 06:23:00",0,4097,5697,144,4007,87,140,90,0,4,5220,"Apr 25, 2017","Daily Activity",22,26,06,23,1493042400,1493036760,1493036760,1493071200,1493076420,1493076420
"2017-04-26 ",462,164,298,"2017-04-25 23:06:00","2017-04-26 06:48:00",0,4834,6643,181,3999,83,134,835,6,47,5340,"Apr 26, 2017","Daily Activity",23,06,06,48,1493128800,1493125560,1493125560,1493157600,1493162580,1493162940
"2017-04-27 ",568,148,420,"2017-04-26 21:13:00","2017-04-27 06:41:00",0,3655,5149,130,3564,65,127,91,1,3,3960,"Apr 27, 2017","Daily Activity",21,13,06,41,1493215200,1493205180,1493205180,1493244000,1493247900,1493247960
"2017-04-28 ",502,111,391,"2017-04-27 21:37:00","2017-04-28 05:59:00",0,4720,6512,168,4720,83,168,0,0,0,4980,"Apr 28, 2017","Daily Activity",21,37,05,59,1493301600,1493293020,1493293020,1493330400,1493335380,1493335380
"2017-04-29 ",479,101,378,"2017-04-28 22:09:00","2017-04-29 06:08:00",0,5024,6436,197,4271,82,151,753,4,46,5160,"Apr 29, 2017","Daily Activity",22,09,06,08,1493388000,1493381340,1493381340,1493416800,1493421720,1493421960
"2017-04-30 ",440,137,303,"2017-04-29 23:28:00","2017-04-30 06:48:00",0,3769,5239,133,3728,79,132,41,0,1,4740,"Apr 30, 2017","Daily Activity",23,28,06,48,1493474400,1493472480,1493472480,1493503200,1493507940,1493507940
"2017-05-01 ",601,111,490,"2017-04-30 22:28:00","2017-05-01 08:29:00",0,1638,2407,61,1617,49,60,21,0,1,2940,"May 01, 2017","Daily Activity",22,28,08,29,1493560800,1493555280,1493555280,1493589600,1493592540,1493592540
"2017-05-02 ",509,115,394,"2017-05-01 21:37:00","2017-05-02 06:06:00",0,3395,4656,131,3083,62,112,312,2,19,3840,"May 02, 2017","Daily Activity",21,37,06,06,1493647200,1493638620,1493638620,1493676000,1493679720,1493679840
"2017-05-03 ",417,108,309,"2017-05-02 23:43:00","2017-05-03 06:40:00",0,3984,5630,139,3964,78,138,20,0,1,4680,"May 03, 2017","Daily Activity",23,43,06,40,1493733600,1493732580,1493732580,1493762400,1493767080,1493767080
"2017-05-04 ",429,99,330,"2017-05-03 23:32:00","2017-05-04 06:41:00",0,4631,6339,162,4610,85,161,21,0,1,5100,"May 04, 2017","Daily Activity",23,32,06,41,1493820000,1493818320,1493818320,1493848800,1493853900,1493853900
"2017-05-05 ",371,130,241,"2017-05-05 00:28:00","2017-05-05 06:41:00",2,3598,5160,133,3566,77,131,32,0,2,4620,"May 05, 2017","Daily Activity",00,28,06,41,1493906400,1493908080,1493908080,1493935200,1493939820,1493939820
"2017-05-06 ",543,119,424,"2017-05-05 21:56:00","2017-05-06 07:01:00",2,3629,4937,131,3587,61,130,42,0,1,3660,"May 06, 2017","Daily Activity",21,56,07,01,1493992800,1493985360,1493985360,1494021600,1494025260,1494025260
"2017-05-07 ",0,0,0,"2017-05-07 00:00:00","2017-05-07 00:00:00",0,1990,2529,96,1209,34,51,781,4,45,2280,"May 07, 2017","Daily Activity",00,00,00,00,1494079200,1494079200,1494079200,1494108000,1494110040,1494110280
"2017-05-08 ",502,146,356,"2017-05-07 23:44:00","2017-05-08 08:06:00",0,5358,7376,181,5358,89,181,0,0,0,5340,"May 08, 2017","Daily Activity",23,44,08,06,1494165600,1494164640,1494164640,1494194400,1494199740,1494199740
"2017-05-09 ",498,146,352,"2017-05-08 22:22:00","2017-05-09 06:40:00",0,3913,5386,147,3576,76,131,337,2,16,4680,"May 09, 2017","Daily Activity",22,22,06,40,1494252000,1494246120,1494246120,1494280800,1494285360,1494285480
"2017-05-10 ",532,108,424,"2017-05-09 22:37:00","2017-05-10 07:31:00",2,1617,2362,60,1555,42,58,62,0,2,2520,"May 10, 2017","Daily Activity",22,37,07,31,1494338400,1494333420,1494333420,1494367200,1494369720,1494369720
"2017-05-11 ",532,31,501,"2017-05-10 22:51:00","2017-05-11 07:43:00",0,3380,4713,132,3185,71,121,195,1,11,4320,"May 11, 2017","Daily Activity",22,51,07,43,1494424800,1494420660,1494420660,1494453600,1494457860,1494457920
"2017-05-12 ",398,103,295,"2017-05-12 00:02:00","2017-05-12 06:40:00",0,2768,3783,116,2410,60,98,358,2,18,3720,"May 12, 2017","Daily Activity",00,02,06,40,1494511200,1494511320,1494511320,1494540000,1494543600,1494543720
"2017-05-13 ",541,104,437,"2017-05-12 22:12:00","2017-05-13 07:13:00",0,3275,4796,115,3184,77,113,91,1,2,4680,"May 13, 2017","Daily Activity",22,12,07,13,1494597600,1494591120,1494591120,1494626400,1494631020,1494631080
"2017-05-14 ",576,105,471,"2017-05-13 22:27:00","2017-05-14 08:03:00",0,3540,4602,146,2847,60,106,693,4,40,3840,"May 14, 2017","Daily Activity",22,27,08,03,1494684000,1494678420,1494678420,1494712800,1494716400,1494716640
"2017-05-15 ",470,117,353,"2017-05-14 23:17:00","2017-05-15 07:07:00",0,3266,4699,118,3266,74,118,0,0,0,4440,"May 15, 2017","Daily Activity",23,17,07,07,1494770400,1494767820,1494767820,1494799200,1494803640,1494803640
"2017-05-16 ",455,115,340,"2017-05-15 22:25:00","2017-05-16 06:00:00",0,6379,8683,218,6336,97,217,43,0,1,5820,"May 16, 2017","Daily Activity",22,25,06,00,1494856800,1494851100,1494851100,1494885600,1494891420,1494891420
"2017-05-17 ",482,78,404,"2017-05-16 22:42:00","2017-05-17 06:46:00",2,4684,6662,152,4684,92,152,0,0,0,5520,"May 17, 2017","Daily Activity",22,42,06,46,1494943200,1494938520,1494938520,1494972000,1494977520,1494977520
"2017-05-18 ",495,77,418,"2017-05-17 22:36:00","2017-05-18 06:53:00",2,5717,7979,211,5474,103,198,243,1,13,6240,"May 18, 2017","Daily Activity",22,36,06,53,1495029600,1495024560,1495024560,1495058400,1495064580,1495064640
"2017-05-19 ",457,154,303,"2017-05-18 23:05:00","2017-05-19 06:42:00",0,5336,7251,196,5295,97,195,41,0,1,5820,"May 19, 2017","Daily Activity",23,05,06,42,1495116000,1495112700,1495112700,1495144800,1495150620,1495150620
"2017-05-20 ",559,181,378,"2017-05-19 21:22:00","2017-05-20 06:41:00",0,2273,3337,78,2273,58,78,0,0,0,3480,"May 20, 2017","Daily Activity",21,22,06,41,1495202400,1495192920,1495192920,1495231200,1495234680,1495234680
"2017-05-21 ",425,66,359,"2017-05-20 22:26:00","2017-05-21 05:34:00",3,2933,3923,129,2122,55,86,811,5,43,3600,"May 21, 2017","Daily Activity",22,26,05,34,1495288800,1495283160,1495283160,1495317600,1495320900,1495321200
"2017-05-22 ",404,77,327,"2017-05-22 02:23:00","2017-05-22 09:22:00",15,3386,4826,115,3315,72,113,71,0,2,4320,"May 22, 2017","Daily Activity",02,23,09,22,1495375200,1495383780,1495383780,1495404000,1495408320,1495408320
"2017-05-23 ",511,125,386,"2017-05-22 21:58:00","2017-05-23 06:29:00",0,4738,6400,189,3911,80,140,827,5,49,5100,"May 23, 2017","Daily Activity",21,58,06,29,1495461600,1495454280,1495454280,1495490400,1495495200,1495495500
"2017-05-24 ",356,62,294,"2017-05-24 00:44:00","2017-05-24 06:40:00",0,2869,4133,101,2869,63,101,0,0,0,3780,"May 24, 2017","Daily Activity",00,44,06,40,1495548000,1495550640,1495550640,1495576800,1495580580,1495580580
"2017-05-25 ",477,121,356,"2017-05-24 22:29:00","2017-05-25 06:26:00",0,3445,4778,119,3430,68,119,15,0,0,4080,"May 25, 2017","Daily Activity",22,29,06,26,1495634400,1495628940,1495628940,1495663200,1495667280,1495667280
"2017-05-26 ",569,123,446,"2017-05-25 22:14:00","2017-05-26 07:43:00",0,4994,6668,210,3502,85,133,1492,12,77,5820,"May 26, 2017","Daily Activity",22,14,07,43,1495720800,1495714440,1495714440,1495749600,1495754700,1495755420
"2017-05-27 ",442,165,277,"2017-05-27 01:08:00","2017-05-27 08:30:00",0,1296,1893,52,1282,38,52,14,0,0,2280,"May 27, 2017","Daily Activity",01,08,08,30,1495807200,1495811280,1495811280,1495836000,1495838280,1495838280
"2017-05-28 ",0,0,0,"2017-05-28 00:00:00","2017-05-28 00:00:00",0,986,1425,34,898,27,31,88,1,3,1680,"May 28, 2017","Daily Activity",00,00,00,00,1495893600,1495893600,1495893600,1495922400,1495924020,1495924080
"2017-05-29 ",448,104,344,"2017-05-29 00:05:00","2017-05-29 07:33:00",0,4651,6630,152,4611,93,150,40,0,2,5580,"May 29, 2017","Daily Activity",00,05,07,33,1495980000,1495980300,1495980300,1496008800,1496014380,1496014380
"2017-05-30 ",252,37,215,"2017-05-29 20:40:00","2017-05-30 00:52:00",0,4376,6083,154,4211,84,149,165,1,5,5100,"May 30, 2017","Daily Activity",20,40,00,52,1496066400,1496054400,1496054400,1496095200,1496100240,1496100300
"2017-05-31 ",333,128,205,"2017-05-31 02:22:00","2017-05-31 07:55:00",0,4031,5576,148,3997,82,146,34,0,2,4920,"May 31, 2017","Daily Activity",02,22,07,55,1496152800,1496161320,1496161320,1496181600,1496186520,1496186520
"2017-06-01 ",575,154,421,"2017-05-31 21:24:00","2017-06-01 07:01:00",2,3034,4225,104,3034,60,104,0,0,0,3600,"Jun 01, 2017","Daily Activity",21,24,07,01,1496239200,1496229840,1496229840,1496268000,1496271600,1496271600
"2017-06-02 ",469,174,295,"2017-06-01 22:52:00","2017-06-02 06:41:00",0,4568,6411,152,4516,82,150,52,0,2,4920,"Jun 02, 2017","Daily Activity",22,52,06,41,1496325600,1496321520,1496321520,1496354400,1496359320,1496359320
"2017-06-03 ",517,112,405,"2017-06-02 22:37:00","2017-06-03 07:14:00",0,2106,2814,96,1591,46,69,515,3,27,2940,"Jun 03, 2017","Daily Activity",22,37,07,14,1496412000,1496407020,1496407020,1496440800,1496443560,1496443740
"2017-06-04 ",481,100,381,"2017-06-03 22:58:00","2017-06-04 06:59:00",0,2713,3988,96,2696,68,96,17,0,0,4080,"Jun 04, 2017","Daily Activity",22,58,06,59,1496498400,1496494680,1496494680,1496527200,1496531280,1496531280
"2017-06-05 ",501,148,353,"2017-06-04 22:23:00","2017-06-05 06:44:00",0,1877,2697,71,1820,51,69,57,0,2,3060,"Jun 05, 2017","Daily Activity",22,23,06,44,1496584800,1496578980,1496578980,1496613600,1496616660,1496616660
"2017-06-06 ",464,63,401,"2017-06-05 22:36:00","2017-06-06 06:20:00",0,3325,4637,120,3325,67,120,0,0,0,4020,"Jun 06, 2017","Daily Activity",22,36,06,20,1496671200,1496666160,1496666160,1496700000,1496704020,1496704020
"2017-06-07 ",453,124,329,"2017-06-06 22:33:00","2017-06-07 06:06:00",0,5196,7102,196,4227,82,143,969,8,53,5400,"Jun 07, 2017","Daily Activity",22,33,06,06,1496757600,1496752380,1496752380,1496786400,1496791320,1496791800
"2017-06-08 ",474,126,348,"2017-06-07 22:29:00","2017-06-08 06:23:00",0,3947,5485,149,3932,86,149,15,0,0,5160,"Jun 08, 2017","Daily Activity",22,29,06,23,1496844000,1496838540,1496838540,1496872800,1496877960,1496877960
"2017-06-09 ",477,58,419,"2017-06-08 22:49:00","2017-06-09 06:46:00",0,1887,2773,77,1887,63,77,0,0,0,3780,"Jun 09, 2017","Daily Activity",22,49,06,46,1496930400,1496926140,1496926140,1496959200,1496962980,1496962980
"2017-06-10 ",513,86,427,"2017-06-09 22:39:00","2017-06-10 07:12:00",0,3862,5586,139,3771,84,136,91,1,3,5100,"Jun 10, 2017","Daily Activity",22,39,07,12,1497016800,1497011940,1497011940,1497045600,1497050640,1497050700
"2017-06-11 ",604,134,470,"2017-06-10 21:50:00","2017-06-11 07:56:00",2,2585,3687,102,2203,58,86,382,4,16,3720,"Jun 11, 2017","Daily Activity",21,50,07,56,1497103200,1497095400,1497095400,1497132000,1497135480,1497135720
"2017-06-12 ",434,114,320,"2017-06-11 23:30:00","2017-06-12 06:44:00",0,3745,5250,135,3745,82,135,0,0,0,4920,"Jun 12, 2017","Daily Activity",23,30,06,44,1497189600,1497187800,1497187800,1497218400,1497223320,1497223320
"2017-06-13 ",481,96,385,"2017-06-12 22:36:00","2017-06-13 06:37:00",0,1531,2245,64,1531,44,64,0,0,0,2640,"Jun 13, 2017","Daily Activity",22,36,06,37,1497276000,1497270960,1497270960,1497304800,1497307440,1497307440
"2017-06-14 ",427,93,334,"2017-06-13 23:00:00","2017-06-14 06:07:00",0,2941,4219,102,2929,70,101,12,0,1,4200,"Jun 14, 2017","Daily Activity",23,00,06,07,1497362400,1497358800,1497358800,1497391200,1497395400,1497395400
"2017-06-15 ",510,156,354,"2017-06-15 00:23:00","2017-06-15 08:53:00",0,1349,1957,52,1163,44,40,186,0,12,2640,"Jun 15, 2017","Daily Activity",00,23,08,53,1497448800,1497450180,1497450180,1497477600,1497480240,1497480240
"2017-06-16 ",437,117,320,"2017-06-16 00:34:00","2017-06-16 07:53:00",2,4184,5906,137,3900,76,124,284,1,13,4620,"Jun 16, 2017","Daily Activity",00,34,07,53,1497535200,1497537240,1497537240,1497564000,1497568560,1497568620
"2017-06-17 ",506,93,413,"2017-06-17 01:18:00","2017-06-17 09:44:00",0,4940,6847,173,4564,81,154,376,3,19,5040,"Jun 17, 2017","Daily Activity",01,18,09,44,1497621600,1497626280,1497626280,1497650400,1497655260,1497655440
"2017-06-18 ",512,162,350,"2017-06-17 23:37:00","2017-06-18 08:09:00",0,8576,11307,291,8387,129,278,189,0,13,7740,"Jun 18, 2017","Daily Activity",23,37,08,09,1497708000,1497706620,1497706620,1497736800,1497744540,1497744540
"2017-06-19 ",544,166,378,"2017-06-18 22:59:00","2017-06-19 08:03:00",0,2687,3908,92,2364,64,75,323,2,17,3960,"Jun 19, 2017","Daily Activity",22,59,08,03,1497794400,1497790740,1497790740,1497823200,1497827040,1497827160
"2017-06-20 ",530,90,440,"2017-06-19 23:06:00","2017-06-20 07:59:00",3,6629,8765,239,6200,101,209,429,2,30,6180,"Jun 20, 2017","Daily Activity",23,06,07,59,1497880800,1497877560,1497877560,1497909600,1497915660,1497915780
"2017-06-21 ",576,183,393,"2017-06-20 22:31:00","2017-06-21 08:07:00",0,8750,12411,291,8402,154,268,348,1,23,9300,"Jun 21, 2017","Daily Activity",22,31,08,07,1497967200,1497961860,1497961860,1497996000,1498005240,1498005300
"2017-06-22 ",441,134,307,"2017-06-22 01:16:00","2017-06-22 08:37:00",0,9877,12828,335,9611,145,319,266,1,16,8760,"Jun 22, 2017","Daily Activity",01,16,08,37,1498053600,1498058160,1498058160,1498082400,1498091100,1498091160
"2017-06-23 ",515,128,387,"2017-06-22 22:25:00","2017-06-23 07:16:00",16,9001,11645,321,8354,126,280,647,3,41,7740,"Jun 23, 2017","Daily Activity",22,25,07,16,1498140000,1498134300,1498134300,1498168800,1498176360,1498176540
"2017-06-24 ",501,148,353,"2017-06-23 23:46:00","2017-06-24 08:07:00",0,6161,8780,207,5781,101,184,380,2,23,6180,"Jun 24, 2017","Daily Activity",23,46,08,07,1498226400,1498225560,1498225560,1498255200,1498261260,1498261380
"2017-06-25 ",490,126,364,"2017-06-24 22:18:00","2017-06-25 06:28:00",0,8756,11411,322,7926,131,269,830,5,53,8160,"Jun 25, 2017","Daily Activity",22,18,06,28,1498312800,1498306680,1498306680,1498341600,1498349460,1498349760
"2017-06-26 ",449,110,339,"2017-06-25 23:09:00","2017-06-26 07:48:00",70,2542,3695,93,2129,58,69,413,2,24,3600,"Jun 26, 2017","Daily Activity",23,09,07,48,1498399200,1498396140,1498396140,1498428000,1498431480,1498431600
"2017-06-27 ",513,191,322,"2017-06-26 22:28:00","2017-06-27 07:01:00",0,12086,15643,430,11297,168,383,789,4,47,10320,"Jun 27, 2017","Daily Activity",22,28,07,01,1498485600,1498480080,1498480080,1498514400,1498524480,1498524720
"2017-06-28 ",483,158,325,"2017-06-27 22:42:00","2017-06-28 06:45:00",0,11161,14405,400,10386,151,352,775,4,48,9300,"Jun 28, 2017","Daily Activity",22,42,06,45,1498572000,1498567320,1498567320,1498600800,1498609860,1498610100
"2017-06-29 ",425,147,278,"2017-06-28 22:46:00","2017-06-29 05:51:00",0,8283,11277,283,7782,131,259,501,3,24,8040,"Jun 29, 2017","Daily Activity",22,46,05,51,1498658400,1498653960,1498653960,1498687200,1498695060,1498695240
"2017-06-30 ",345,102,243,"2017-06-30 00:40:00","2017-06-30 06:25:00",0,9286,12622,310,8804,144,285,482,3,25,8820,"Jun 30, 2017","Daily Activity",00,40,06,25,1498744800,1498747200,1498747200,1498773600,1498782240,1498782420
"2017-07-01 ",359,156,203,"2017-07-01 00:57:00","2017-07-01 06:56:00",0,7049,9337,242,6834,110,227,215,0,15,6600,"Jul 01, 2017","Daily Activity",00,57,06,56,1498831200,1498834620,1498834620,1498860000,1498866600,1498866600
"2017-07-02 ",451,196,255,"2017-07-02 00:30:00","2017-07-02 08:15:00",14,4815,6760,171,4402,89,144,413,2,27,5460,"Jul 02, 2017","Daily Activity",00,30,08,15,1498917600,1498919400,1498919400,1498946400,1498951740,1498951860
"2017-07-03 ",456,162,294,"2017-07-03 02:28:00","2017-07-03 10:04:00",0,3425,4851,136,2648,64,86,777,4,50,4080,"Jul 03, 2017","Daily Activity",02,28,10,04,1499004000,1499012880,1499012880,1499032800,1499036640,1499036880
"2017-07-04 ",394,69,325,"2017-07-03 22:53:00","2017-07-04 05:27:00",0,5690,7229,238,3482,72,116,2208,14,122,5160,"Jul 04, 2017","Daily Activity",22,53,05,27,1499090400,1499086380,1499086380,1499119200,1499123520,1499124360
"2017-07-05 ",473,127,346,"2017-07-04 23:02:00","2017-07-05 06:55:00",0,5201,7015,206,3926,87,130,1275,8,76,5700,"Jul 05, 2017","Daily Activity",23,02,06,55,1499176800,1499173320,1499173320,1499205600,1499210820,1499211300
"2017-07-06 ",495,63,432,"2017-07-05 22:52:00","2017-07-06 07:07:00",0,4709,6551,161,4395,78,141,314,1,20,4740,"Jul 06, 2017","Daily Activity",22,52,07,07,1499263200,1499259120,1499259120,1499292000,1499296680,1499296740
"2017-07-07 ",456,55,401,"2017-07-06 22:42:00","2017-07-07 06:18:00",0,3200,4500,120,2784,71,93,416,1,27,4320,"Jul 07, 2017","Daily Activity",22,42,06,18,1499349600,1499344920,1499344920,1499378400,1499382660,1499382720
"2017-07-08 ",344,125,219,"2017-07-08 01:28:00","2017-07-08 07:12:00",0,7433,10242,274,6803,125,235,630,3,39,7680,"Jul 08, 2017","Daily Activity",01,28,07,12,1499436000,1499441280,1499441280,1499464800,1499472300,1499472480
"2017-07-09 ",504,109,395,"2017-07-08 23:22:00","2017-07-09 07:46:00",0,2569,3769,91,2310,57,75,259,1,16,3480,"Jul 09, 2017","Daily Activity",23,22,07,46,1499522400,1499520120,1499520120,1499551200,1499554620,1499554680
"2017-07-10 ",347,76,271,"2017-07-09 22:27:00","2017-07-10 04:14:00",0,392,576,17,315,16,10,77,0,7,960,"Jul 10, 2017","Daily Activity",22,27,04,14,1499608800,1499603220,1499603220,1499637600,1499638560,1499638560
"2017-07-11 ",475,142,333,"2017-07-10 22:51:00","2017-07-11 06:46:00",0,4402,6393,150,4147,90,132,255,1,18,5460,"Jul 11, 2017","Daily Activity",22,51,06,46,1499695200,1499691060,1499691060,1499724000,1499729400,1499729460
"2017-07-12 ",403,132,271,"2017-07-11 22:30:00","2017-07-12 05:13:00",0,3360,4716,119,3086,67,101,274,1,18,4080,"Jul 12, 2017","Daily Activity",22,30,05,13,1499781600,1499776200,1499776200,1499810400,1499814420,1499814480
"2017-07-13 ",536,112,424,"2017-07-12 23:39:00","2017-07-13 08:35:00",0,5209,7312,179,4790,96,153,419,1,26,5820,"Jul 13, 2017","Daily Activity",23,39,08,35,1499868000,1499866740,1499866740,1499896800,1499902560,1499902620
"2017-07-14 ",468,128,340,"2017-07-13 23:31:00","2017-07-14 07:19:00",0,4188,5894,150,3809,88,125,379,1,25,5340,"Jul 14, 2017","Daily Activity",23,31,07,19,1499954400,1499952660,1499952660,1499983200,1499988480,1499988540
"2017-07-15 ",452,94,358,"2017-07-15 00:30:00","2017-07-15 08:17:00",15,2670,3782,105,2397,67,83,273,1,22,4080,"Jul 15, 2017","Daily Activity",00,30,08,17,1500040800,1500042600,1500042600,1500069600,1500073620,1500073680
"2017-07-16 ",529,125,404,"2017-07-15 23:23:00","2017-07-16 08:15:00",3,4073,5697,147,3771,96,128,302,1,19,5820,"Jul 16, 2017","Daily Activity",23,23,08,15,1500127200,1500124980,1500124980,1500156000,1500161760,1500161820
"2017-07-17 ",512,110,402,"2017-07-16 23:33:00","2017-07-17 08:08:00",3,4299,5912,160,3539,68,117,760,5,43,4380,"Jul 17, 2017","Daily Activity",23,33,08,08,1500213600,1500211980,1500211980,1500242400,1500246480,1500246780
"2017-07-18 ",469,121,348,"2017-07-17 21:41:00","2017-07-18 05:30:00",0,5888,7658,255,3512,69,117,2376,17,138,5160,"Jul 18, 2017","Daily Activity",21,41,05,30,1500300000,1500291660,1500291660,1500328800,1500332940,1500333960
"2017-07-19 ",493,113,380,"2017-07-18 22:26:00","2017-07-19 06:50:00",11,4046,5653,146,3747,87,126,299,0,20,5220,"Jul 19, 2017","Daily Activity",22,26,06,50,1500386400,1500380760,1500380760,1500415200,1500420420,1500420420
"2017-07-20 ",529,75,454,"2017-07-19 22:19:00","2017-07-20 07:08:00",0,6247,8807,218,5951,116,196,296,0,22,6960,"Jul 20, 2017","Daily Activity",22,19,07,08,1500472800,1500466740,1500466740,1500501600,1500508560,1500508560
"2017-07-21 ",525,169,356,"2017-07-20 22:42:00","2017-07-21 07:27:00",0,5601,7781,192,5214,90,171,387,2,21,5520,"Jul 21, 2017","Daily Activity",22,42,07,27,1500559200,1500554520,1500554520,1500588000,1500593400,1500593520
"2017-07-22 ",0,0,0,"2017-07-22 00:00:00","2017-07-22 00:00:00",0,3536,4931,130,3213,74,108,323,1,22,4500,"Jul 22, 2017","Daily Activity",00,00,00,00,1500645600,1500645600,1500645600,1500674400,1500678840,1500678900
"2017-07-23 ",504,100,404,"2017-07-22 23:10:00","2017-07-23 07:34:00",0,0,0,0,0,0,0,0,0,0,0,"Jul 23, 2017","Daily Activity",23,10,07,34,1500732000,1500729000,1500729000,1500760800,1500760800,1500760800
